Extending tidyndr
…
three_to_five <- tx_mmd(ndr_example, months = c(3, 4, 5))

six_plus <- tx_mmd(ndr_example, months = c(6:12))

summarise_ndr(less_than_three,
              three_to_five,
              six_plus,
              level = "state",
              names = c(
                "< 3months",
                "3-5months",
                "6+ months"
              ))
#> # A tibble: 5 x 5
#>   ip        state   `< 3months` `3-5months` `6+ months`
#>   <chr>     <chr>         <int>       <int>       <int>
#> 1 NGOHealth Okun             30          67         109
#> 2 NGOHealth Abaji            94         284         516
#> 3 NGOHealth Arewa           173         409         635
#> 4 NGOHealth Ayetoro         108         216         467
#> # ... with 1 more row
