Introduction to tidyndr
…
tx_new()

This generates the line-list of clients who started ART within a period. It can be supplied 5 different arguments with the first one being the only compulsory one:

data - the NDR line-list imported using the read_ndr().

from - the start date for generating the requested line-list. This defaults to the beginning of the Fiscal Year. When this is supplied, it must in in the ISO 8601 format.

to - the end date for generating the requested line-list. This defaults to all clients who started ART after the from date.

states and facilities - the particular state(s) of interest. When this is not supplied,it calculates the new clients for all states and facilities contained in the data.

## generate tx_new clients for the FY for all states in the data
tx_new(ndr_example)
#> # A tibble: 5,239 x 52
#>   ip     state  lga   facility datim_code sex   patient_identif~ hospital_number
#>   <fct>  <fct>  <fct> <fct>    <fct>      <fct> <chr>            <chr>          
#> 1 IP_na~ State~ LGA0~ Facilit~ datim_cod~ M     State 1004       0003           
#> 2 IP_na~ State~ LGA0~ Facilit~ datim_cod~ M     State 3008       0003           
#> 3 IP_na~ State~ LGA0~ Facilit~ datim_cod~ F     State 2008       0003           
#> 4 IP_na~ State~ LGA0~ Facilit~ datim_cod~ F     State 30012      0003           
#> # ... with 5,235 more rows, and 44 more variables: date_of_birth <date>,
#> #   age_at_art_initiation <dbl>, current_age <dbl>, art_start_date <date>,
#> #   art_start_date_source <fct>, last_drug_pickup_date <date>,
#> #   last_drug_pickup_date_q1 <date>, last_drug_pickup_date_q2 <date>,
#> #   last_drug_pickup_date_q3 <date>, last_drug_pickup_date_q4 <date>,
#> #   last_regimen <fct>, last_clinic_visit_date <date>,
#> #   days_of_arv_refill <dbl>, pregnancy_status <fct>, current_viral_load <dbl>,
#> #   date_of_current_viral_load <date>, current_viral_load_q1 <dbl>,
#> #   date_of_current_viral_load_q1 <date>, current_viral_load_q2 <dbl>,
…
## generate tx_new for only one state (State 1 in the data) for January 2021.

tx_new(ndr_example,
       from = "2021-01-01",
       to = "2021-01-31",
       states = "State 1")
#> # A tibble: 244 x 52
#>   ip     state  lga   facility datim_code sex   patient_identif~ hospital_number
#>   <fct>  <fct>  <fct> <fct>    <fct>      <fct> <chr>            <chr>          
#> 1 IP_na~ State~ LGA0~ Facilit~ datim_cod~ M     State 1004       0003           
#> 2 IP_na~ State~ LGA0~ Facilit~ datim_cod~ M     State 10070      00029          
#> 3 IP_na~ State~ LGA0~ Facilit~ datim_cod~ F     State 10085      00030          
#> 4 IP_na~ State~ LGA0~ Facilit~ datim_cod~ M     State 10087      00033          
#> # ... with 240 more rows, and 44 more variables: date_of_birth <date>,
#> #   age_at_art_initiation <dbl>, current_age <dbl>, art_start_date <date>,
#> #   art_start_date_source <fct>, last_drug_pickup_date <date>,
#> #   last_drug_pickup_date_q1 <date>, last_drug_pickup_date_q2 <date>,
#> #   last_drug_pickup_date_q3 <date>, last_drug_pickup_date_q4 <date>,
#> #   last_regimen <fct>, last_clinic_visit_date <date>,
#> #   days_of_arv_refill <dbl>, pregnancy_status <fct>, current_viral_load <dbl>,
#> #   date_of_current_viral_load <date>, current_viral_load_q1 <dbl>,
#> #   date_of_current_viral_load_q1 <date>, current_viral_load_q2 <dbl>,
…
tx_curr()

Generates the line-list of all clients who are still active on treatment. It has 4 different parameters with only the first one as the compulsory argument to be specified. The parameters are:

data, states and facilities - see data for tx_new above.

status - the column to be used to determine the tx_curr. Can be one of two - ‘calculated’ or ‘default’. The ‘calculated’ used the derived current_status column while the ‘default’ uses the NDR current_status_28_days column.

## generate current clients using the calculated `current_status` column
tx_curr(ndr_example)
#> # A tibble: 16,696 x 52
#>   ip     state  lga   facility datim_code sex   patient_identif~ hospital_number
#>   <fct>  <fct>  <fct> <fct>    <fct>      <fct> <chr>            <chr>          
#> 1 IP_na~ State~ LGA0~ Facilit~ datim_cod~ M     State 1001       0001           
#> 2 IP_na~ State~ LGA0~ Facilit~ datim_cod~ F     State 2001       0001           
#> 3 IP_na~ State~ LGA0~ Facilit~ datim_cod~ M     State 3001       0001           
#> 4 IP_na~ State~ LGA0~ Facilit~ datim_cod~ F     State 1002       0001           
#> # ... with 16,692 more rows, and 44 more variables: date_of_birth <date>,
#> #   age_at_art_initiation <dbl>, current_age <dbl>, art_start_date <date>,
#> #   art_start_date_source <fct>, last_drug_pickup_date <date>,
#> #   last_drug_pickup_date_q1 <date>, last_drug_pickup_date_q2 <date>,
#> #   last_drug_pickup_date_q3 <date>, last_drug_pickup_date_q4 <date>,
#> #   last_regimen <fct>, last_clinic_visit_date <date>,
#> #   days_of_arv_refill <dbl>, pregnancy_status <fct>, current_viral_load <dbl>,
#> #   date_of_current_viral_load <date>, current_viral_load_q1 <dbl>,
#> #   date_of_current_viral_load_q1 <date>, current_viral_load_q2 <dbl>,
…
## generate current clients using the default `current_status_28_days` column
tx_curr(ndr_example,
        status = "default")
#> # A tibble: 27,024 x 52
#>   ip     state  lga   facility datim_code sex   patient_identif~ hospital_number
#>   <fct>  <fct>  <fct> <fct>    <fct>      <fct> <chr>            <chr>          
#> 1 IP_na~ State~ LGA0~ Facilit~ datim_cod~ M     State 3001       0001           
#> 2 IP_na~ State~ LGA0~ Facilit~ datim_cod~ F     State 1002       0001           
#> 3 IP_na~ State~ LGA0~ Facilit~ datim_cod~ F     State 3003       0001           
#> 4 IP_na~ State~ LGA0~ Facilit~ datim_cod~ M     State 1003       0002           
#> # ... with 27,020 more rows, and 44 more variables: date_of_birth <date>,
#> #   age_at_art_initiation <dbl>, current_age <dbl>, art_start_date <date>,
#> #   art_start_date_source <fct>, last_drug_pickup_date <date>,
#> #   last_drug_pickup_date_q1 <date>, last_drug_pickup_date_q2 <date>,
#> #   last_drug_pickup_date_q3 <date>, last_drug_pickup_date_q4 <date>,
#> #   last_regimen <fct>, last_clinic_visit_date <date>,
#> #   days_of_arv_refill <dbl>, pregnancy_status <fct>, current_viral_load <dbl>,
#> #   date_of_current_viral_load <date>, current_viral_load_q1 <dbl>,
#> #   date_of_current_viral_load_q1 <date>, current_viral_load_q2 <dbl>,
…
tx_mmd

Knowing the number of months of medications dispensed during the last medication refill allows you to calculate the number of active clients who are on MMD (Multi-month Dispensing), i.e. clients who were given between 3 months and 6 months medication during the last clinic visit. You might also be interested in know the details of clients who did not have MMD, or who had more than 6 months medication refill (some of which might be due to data entry errors). The arguments that can be supplied to this function include:

data, states, and facilities - see tx_new() above.

status - see tx_curr() documentation above.

months- the number of months of ARV medications dispensed during the last clinic visit. The default filters active clients who had between 3 and 6 months of ARV but you can change this to generate the list of clients who had more than 6 months medications dispensed for example.

tx_mmd(ndr_example)
#> # A tibble: 14,310 x 53
#>   ip     state  lga   facility datim_code sex   patient_identif~ hospital_number
#>   <fct>  <fct>  <fct> <fct>    <fct>      <fct> <chr>            <chr>          
#> 1 IP_na~ State~ LGA0~ Facilit~ datim_cod~ M     State 1001       0001           
#> 2 IP_na~ State~ LGA0~ Facilit~ datim_cod~ F     State 2001       0001           
#> 3 IP_na~ State~ LGA0~ Facilit~ datim_cod~ M     State 3001       0001           
#> 4 IP_na~ State~ LGA0~ Facilit~ datim_cod~ F     State 1002       0001           
#> # ... with 14,306 more rows, and 45 more variables: date_of_birth <date>,
#> #   age_at_art_initiation <dbl>, current_age <dbl>, art_start_date <date>,
#> #   art_start_date_source <fct>, last_drug_pickup_date <date>,
#> #   last_drug_pickup_date_q1 <date>, last_drug_pickup_date_q2 <date>,
#> #   last_drug_pickup_date_q3 <date>, last_drug_pickup_date_q4 <date>,
#> #   last_regimen <fct>, last_clinic_visit_date <date>,
#> #   days_of_arv_refill <dbl>, pregnancy_status <fct>, current_viral_load <dbl>,
#> #   date_of_current_viral_load <date>, current_viral_load_q1 <dbl>,
#> #   date_of_current_viral_load_q1 <date>, current_viral_load_q2 <dbl>,
…
## list of clients who had either more than 6 months, or < 3 months medications dispensed
tx_mmd(ndr_example,
       months = c(1, 2, 7, Inf))
#> # A tibble: 2,237 x 53
#>   ip     state  lga   facility datim_code sex   patient_identif~ hospital_number
#>   <fct>  <fct>  <fct> <fct>    <fct>      <fct> <chr>            <chr>          
#> 1 IP_na~ State~ LGA0~ Facilit~ datim_cod~ F     State 20012      0001           
#> 2 IP_na~ State~ LGA0~ Facilit~ datim_cod~ M     State 20021      0008           
#> 3 IP_na~ State~ LGA0~ Facilit~ datim_cod~ F     State 30027      0009           
#> 4 IP_na~ State~ LGA0~ Facilit~ datim_cod~ F     State 30031      00010          
#> # ... with 2,233 more rows, and 45 more variables: date_of_birth <date>,
#> #   age_at_art_initiation <dbl>, current_age <dbl>, art_start_date <date>,
#> #   art_start_date_source <fct>, last_drug_pickup_date <date>,
#> #   last_drug_pickup_date_q1 <date>, last_drug_pickup_date_q2 <date>,
#> #   last_drug_pickup_date_q3 <date>, last_drug_pickup_date_q4 <date>,
#> #   last_regimen <fct>, last_clinic_visit_date <date>,
#> #   days_of_arv_refill <dbl>, pregnancy_status <fct>, current_viral_load <dbl>,
#> #   date_of_current_viral_load <date>, current_viral_load_q1 <dbl>,
#> #   date_of_current_viral_load_q1 <date>, current_viral_load_q2 <dbl>,
…
Two groups of clients are eligible for routine viral load test - clients who have been on ARV medication for at least 6 months and have not had a viral load result, and clients whose last viral load result is more than 12 months ago (for adults) and more than 6 months ago (for pediatrics and adolescents). tx_vl_eligible() generates this line-list using a combination of the 6 arguments below that can be provided:

data, states and facilities - see tx_new documentation above.

status - please see the documentation for status under tx_curr above.

ref - the reference date for when the eligibility period should be determined. This should be provided in the ISO 8601 format. When this is not supplied, it assumes you would like to know the clients who are eligible for viral load test as at the day of analysis.

sample - one of two (TRUE or FALSE) to determine if only those who are eligible for viral load sample collection within the period of interest (sample = TRUE) or those eligible for viral load test results (sample = FALSE).

## list of clients who are eligible for VL sample collection by the end of March 2021
tx_vl_eligible(ndr_example,
               ref = "2021-03-31",
               sample = TRUE)
#> # A tibble: 7,017 x 52
#>   ip     state  lga   facility datim_code sex   patient_identif~ hospital_number
#>   <fct>  <fct>  <fct> <fct>    <fct>      <fct> <chr>            <chr>          
#> 1 IP_na~ State~ LGA0~ Facilit~ datim_cod~ M     State 1001       0001           
#> 2 IP_na~ State~ LGA0~ Facilit~ datim_cod~ F     State 3006       0002           
#> 3 IP_na~ State~ LGA0~ Facilit~ datim_cod~ F     State 1005       0004           
#> 4 IP_na~ State~ LGA0~ Facilit~ datim_cod~ F     State 20012      0001           
#> # ... with 7,013 more rows, and 44 more variables: date_of_birth <date>,
#> #   age_at_art_initiation <dbl>, current_age <dbl>, art_start_date <date>,
#> #   art_start_date_source <fct>, last_drug_pickup_date <date>,
#> #   last_drug_pickup_date_q1 <date>, last_drug_pickup_date_q2 <date>,
#> #   last_drug_pickup_date_q3 <date>, last_drug_pickup_date_q4 <date>,
#> #   last_regimen <fct>, last_clinic_visit_date <date>,
#> #   days_of_arv_refill <dbl>, pregnancy_status <fct>, current_viral_load <dbl>,
#> #   date_of_current_viral_load <date>, current_viral_load_q1 <dbl>,
#> #   date_of_current_viral_load_q1 <date>, current_viral_load_q2 <dbl>,
…
## filter clients who are eligible for VL test (result) by 31st of March 2021
tx_vl_eligible(ndr_example,
               ref = "2021-03-31")
#> # A tibble: 14,314 x 52
#>   ip     state  lga   facility datim_code sex   patient_identif~ hospital_number
#>   <fct>  <fct>  <fct> <fct>    <fct>      <fct> <chr>            <chr>          
#> 1 IP_na~ State~ LGA0~ Facilit~ datim_cod~ M     State 1001       0001           
#> 2 IP_na~ State~ LGA0~ Facilit~ datim_cod~ F     State 2001       0001           
#> 3 IP_na~ State~ LGA0~ Facilit~ datim_cod~ M     State 3001       0001           
#> 4 IP_na~ State~ LGA0~ Facilit~ datim_cod~ F     State 1002       0001           
#> # ... with 14,310 more rows, and 44 more variables: date_of_birth <date>,
#> #   age_at_art_initiation <dbl>, current_age <dbl>, art_start_date <date>,
#> #   art_start_date_source <fct>, last_drug_pickup_date <date>,
#> #   last_drug_pickup_date_q1 <date>, last_drug_pickup_date_q2 <date>,
#> #   last_drug_pickup_date_q3 <date>, last_drug_pickup_date_q4 <date>,
#> #   last_regimen <fct>, last_clinic_visit_date <date>,
#> #   days_of_arv_refill <dbl>, pregnancy_status <fct>, current_viral_load <dbl>,
#> #   date_of_current_viral_load <date>, current_viral_load_q1 <dbl>,
#> #   date_of_current_viral_load_q1 <date>, current_viral_load_q2 <dbl>,
…
tx_pvls_den

This determines clients who have a documented viral load result and are not due for a repeat viral load test. It helps you to know what the viral load coverage (the number of those who have a VL result / the number of those eligible [when sample is set to FALSE]). It accepts arguments all the arguments that can be supplied to tx_vl_eligible above.

## determine clients whose viral load result is within the last 1 year for adults (>= 20 years) 
## and 6 months for paediatrics and adolescents
tx_pvls_den(ndr_example)
#> # A tibble: 7,458 x 52
#>   ip     state  lga   facility datim_code sex   patient_identif~ hospital_number
#>   <fct>  <fct>  <fct> <fct>    <fct>      <fct> <chr>            <chr>          
#> 1 IP_na~ State~ LGA0~ Facilit~ datim_cod~ F     State 2001       0001           
#> 2 IP_na~ State~ LGA0~ Facilit~ datim_cod~ M     State 3001       0001           
#> 3 IP_na~ State~ LGA0~ Facilit~ datim_cod~ F     State 1002       0001           
#> 4 IP_na~ State~ LGA0~ Facilit~ datim_cod~ F     State 3005       0001           
#> # ... with 7,454 more rows, and 44 more variables: date_of_birth <date>,
#> #   age_at_art_initiation <dbl>, current_age <dbl>, art_start_date <date>,
#> #   art_start_date_source <fct>, last_drug_pickup_date <date>,
#> #   last_drug_pickup_date_q1 <date>, last_drug_pickup_date_q2 <date>,
#> #   last_drug_pickup_date_q3 <date>, last_drug_pickup_date_q4 <date>,
#> #   last_regimen <fct>, last_clinic_visit_date <date>,
#> #   days_of_arv_refill <dbl>, pregnancy_status <fct>, current_viral_load <dbl>,
#> #   date_of_current_viral_load <date>, current_viral_load_q1 <dbl>,
#> #   date_of_current_viral_load_q1 <date>, current_viral_load_q2 <dbl>,
…
## ist of clients who will not be due for a repeat VL test by the end of March 2021
tx_pvls_den(ndr_example,
            ref = "2021-03-31")
#> # A tibble: 7,297 x 52
#>   ip     state  lga   facility datim_code sex   patient_identif~ hospital_number
#>   <fct>  <fct>  <fct> <fct>    <fct>      <fct> <chr>            <chr>          
#> 1 IP_na~ State~ LGA0~ Facilit~ datim_cod~ F     State 2001       0001           
#> 2 IP_na~ State~ LGA0~ Facilit~ datim_cod~ M     State 3001       0001           
#> 3 IP_na~ State~ LGA0~ Facilit~ datim_cod~ F     State 1002       0001           
#> 4 IP_na~ State~ LGA0~ Facilit~ datim_cod~ F     State 3005       0001           
#> # ... with 7,293 more rows, and 44 more variables: date_of_birth <date>,
#> #   age_at_art_initiation <dbl>, current_age <dbl>, art_start_date <date>,
#> #   art_start_date_source <fct>, last_drug_pickup_date <date>,
#> #   last_drug_pickup_date_q1 <date>, last_drug_pickup_date_q2 <date>,
#> #   last_drug_pickup_date_q3 <date>, last_drug_pickup_date_q4 <date>,
#> #   last_regimen <fct>, last_clinic_visit_date <date>,
#> #   days_of_arv_refill <dbl>, pregnancy_status <fct>, current_viral_load <dbl>,
#> #   date_of_current_viral_load <date>, current_viral_load_q1 <dbl>,
#> #   date_of_current_viral_load_q1 <date>, current_viral_load_q2 <dbl>,
…
tx_pvls_num

This determines the number of clients whose viral load test results are below a particular limit among those with a documented viral load result, thus are said to be virally suppressed. It helps you to know how many clients are doing well on their current medication. It accepts the following arguments:

data, ref, states, facilities and status - kindly see the documentation for tx_vl_eligible() above.

n - the reference at which viral load values below are said to be suppressed. The default is 1000.

## clients whose last viral load result is within the last 1 year for adults (>= 20 years) 
## and 6 months for paediatrics and adolescents, and are virally suppressed
tx_pvls_num(ndr_example)
#> # A tibble: 2,889 x 52
#>   ip     state  lga   facility datim_code sex   patient_identif~ hospital_number
#>   <fct>  <fct>  <fct> <fct>    <fct>      <fct> <chr>            <chr>          
#> 1 IP_na~ State~ LGA0~ Facilit~ datim_cod~ F     State 2005       0001           
#> 2 IP_na~ State~ LGA0~ Facilit~ datim_cod~ F     State 2009       0001           
#> 3 IP_na~ State~ LGA0~ Facilit~ datim_cod~ F     State 30014      0005           
#> 4 IP_na~ State~ LGA0~ Facilit~ datim_cod~ F     State 30021      0006           
#> # ... with 2,885 more rows, and 44 more variables: date_of_birth <date>,
#> #   age_at_art_initiation <dbl>, current_age <dbl>, art_start_date <date>,
#> #   art_start_date_source <fct>, last_drug_pickup_date <date>,
#> #   last_drug_pickup_date_q1 <date>, last_drug_pickup_date_q2 <date>,
#> #   last_drug_pickup_date_q3 <date>, last_drug_pickup_date_q4 <date>,
#> #   last_regimen <fct>, last_clinic_visit_date <date>,
#> #   days_of_arv_refill <dbl>, pregnancy_status <fct>, current_viral_load <dbl>,
#> #   date_of_current_viral_load <date>, current_viral_load_q1 <dbl>,
#> #   date_of_current_viral_load_q1 <date>, current_viral_load_q2 <dbl>,
…
## generate the list of clients whose viral load result is less than 200
tx_pvls_num(ndr_example,
            n = 200)
#> # A tibble: 2,687 x 52
#>   ip     state  lga   facility datim_code sex   patient_identif~ hospital_number
#>   <fct>  <fct>  <fct> <fct>    <fct>      <fct> <chr>            <chr>          
#> 1 IP_na~ State~ LGA0~ Facilit~ datim_cod~ F     State 2009       0001           
#> 2 IP_na~ State~ LGA0~ Facilit~ datim_cod~ F     State 30014      0005           
#> 3 IP_na~ State~ LGA0~ Facilit~ datim_cod~ F     State 30021      0006           
#> 4 IP_na~ State~ LGA0~ Facilit~ datim_cod~ F     State 20018      0004           
#> # ... with 2,683 more rows, and 44 more variables: date_of_birth <date>,
#> #   age_at_art_initiation <dbl>, current_age <dbl>, art_start_date <date>,
#> #   art_start_date_source <fct>, last_drug_pickup_date <date>,
#> #   last_drug_pickup_date_q1 <date>, last_drug_pickup_date_q2 <date>,
#> #   last_drug_pickup_date_q3 <date>, last_drug_pickup_date_q4 <date>,
#> #   last_regimen <fct>, last_clinic_visit_date <date>,
#> #   days_of_arv_refill <dbl>, pregnancy_status <fct>, current_viral_load <dbl>,
#> #   date_of_current_viral_load <date>, current_viral_load_q1 <dbl>,
#> #   date_of_current_viral_load_q1 <date>, current_viral_load_q2 <dbl>,
…
